James' R Blog: Cat Names
…
# A tibble: 6 x 6
  name  type    sex          age     breed              color         
  <chr> <chr>   <chr>        <chr>   <chr>              <chr>         
1 <NA>  Sick    Intact Fema~ 4 weeks Domestic Shorthai~ Calico        
2 <NA>  Injured Intact Fema~ 4 weeks Domestic Shorthai~ Black/White   
3 casey Normal  Neutered Ma~ 5 mont~ Domestic Shorthai~ Cream Tabby   
4 ziggy Normal  Intact Fema~ 4 years Domestic Shorthai~ Brown Tabby/W~
5 <NA>  Injured Intact Fema~ 2 years Domestic Shorthai~ Black/White   
6 tommy Normal  Neutered Ma~ 14 yea~ Domestic Shorthai~ Brown Tabby/W~

We can use grepl() to search for partial name matches: 

cats1 %>% filter(grepl("fluf", name))

# A tibble: 52 x 6
   name      type    sex         age    breed             color       
   <chr>     <chr>   <chr>       <chr>  <chr>             <chr>       
 1 fluffy    Normal  Intact Fem~ 3 wee~ Domestic Medium ~ Brown Tabby 
 2 fluffy    Normal  Spayed Fem~ 2 mon~ Domestic Shortha~ Blue Tabby  
 3 fluffern~ Normal  Intact Male 4 wee~ Domestic Shortha~ Blue        
 4 fluff     Normal  Intact Fem~ 3 wee~ Domestic Shortha~ Brown Tabby~
 5 fluffy    Injured Neutered M~ 9 yea~ Domestic Longhai~ Black/White 
 6 fluff     Normal  Spayed Fem~ 2 yea~ Domestic Longhai~ Black       
 7 fluff     Normal  Spayed Fem~ 5 yea~ Domestic Shortha~ Blue Tabby  
 8 fluffy    Normal  Unknown     2 yea~ Domestic Longhai~ Cream       
 9 fluffy    Normal  Spayed Fem~ 2 yea~ Domestic Longhai~ Black       
10 fluffy    Normal  Neutered M~ 5 yea~ Domestic Medium ~ Blue Tabby  
# ... with 42 more rows
…
tail(animals)

                       V1
518         Ringneck dove
519                 Sheep
520 Siamese fighting fish
521         Society finch
522                   Yak
523         Water buffalo

Next, we just need to filter the cats1 dataset for whether they contain the animal name. If we went for direct matches, we would be able to pull out e.g. “dog” but not “Mr dog”. But then, if we just went for partial matches, we might get some errors too. First I’ll try direct matches - i.e. the cat just has another animal’s name: 

cats1 %>% filter(name %in% tolower(animals[,1]))

# A tibble: 545 x 6
   name    type   sex        age    breed                 color       
   <chr>   <chr>  <chr>      <chr>  <chr>                 <chr>       
 1 sparrow Normal Neutered ~ 1 mon~ Domestic Shorthair M~ Black/White 
 2 harrier Normal Intact Ma~ 1 mon~ Domestic Shorthair M~ Brown Tabby 
 3 dolphin Normal Intact Fe~ 5 mon~ Domestic Shorthair M~ Blue        
 4 cat     Normal Spayed Fe~ 6 yea~ Maine Coon Mix        Brown Tabby 
 5 eagle   Normal Intact Ma~ 4 wee~ American Curl Shorth~ Lynx Point  
 6 deer    Normal Intact Fe~ 3 wee~ Domestic Shorthair    Tortie      
 7 bear    Normal Intact Ma~ 9 mon~ Siamese/Domestic Sho~ Black       
 8 kiwi    Normal Neutered ~ 1 year Domestic Shorthair M~ Brown Tabby~
 9 possum  Normal Intact Fe~ 1 day  Domestic Shorthair M~ Calico      
10 monkey  Normal Intact Fe~ 3 yea~ Domestic Shorthair M~ Tortie      
# ... with 535 more rows
…
 Looks like there is no dog !

Here are the top 10: 

cats1 %>% filter(name %in% tolower(animals[,1])) %>% 
  group_by(name) %>% count() %>% arrange(-n)

# A tibble: 114 x 2
# Groups:   name [114]
   name        n
   <chr>   <int>
 1 tiger      68
 2 bear       28
 3 monkey     21
 4 raven      19
 5 moose      18
 6 goose      15
 7 mouse      15
 8 cricket    14
 9 kiwi       14
10 tuna       13
# ... with 104 more rows
…
