James' R Blog: Patterns of Female Names over Time
…
We’ll just focus on female names. These are the most popular female names of all time:

babynames %>%
  filter(sex == "F") %>%
  group_by(name) %>%
  summarize(total = sum(n)) %>%
  arrange(-total)

# A tibble: 67,046 x 2
   name        total
   <chr>       <int>
 1 Mary      4123200
 2 Elizabeth 1629679
 3 Patricia  1571692
 4 Jennifer  1466281
 5 Linda     1452249
 6 Barbara   1434060
 7 Margaret  1246649
 8 Susan     1121440
 9 Dorothy   1107096
10 Sarah     1073895
# ... with 67,036 more rows

We can also see that there are 67,046 unique female names in the dataset. Here are some of the least common names:

babynames %>%
  filter(sex == "F") %>%
  group_by(name) %>%
  summarize(total = sum(n)) %>%
  arrange(total)

# A tibble: 67,046 x 2
   name     total
   <chr>    <int>
 1 Aada         5
 2 Aaden        5
 3 Aadilynn     5
 4 Aafreen      5
 5 Aagot        5
 6 Aaheli       5
 7 Aaiyana      5
 8 Aaja         5
 9 Aakira       5
10 Aakiyah      5
# ... with 67,036 more rows
…
