TSA passenger screenings during Covid
…
To be able to plot these data with ggplot2, we need to convert this dataframe from a wide dataframe to a long dataframe:

df <- df %>% 
  pivot_longer(cols=2:3)

df

# A tibble: 466 x 3
   date       name       value
   <date>     <chr>      <dbl>
 1 2020-10-19 pass2020  921031
 2 2020-10-19 pass2019 2514673
 3 2020-10-18 pass2020 1031505
 4 2020-10-18 pass2019 2606266
 5 2020-10-17 pass2020  788743
 6 2020-10-17 pass2019 2049855
 7 2020-10-16 pass2020  973046
 8 2020-10-16 pass2019 2637667
 9 2020-10-15 pass2020  950024
10 2020-10-15 pass2019 2581007
# ... with 456 more rows
…
